<?xml version="1.0" encoding="UTF-8" standalone="no"?>
<!-- Created with Inkscape (http://www.inkscape.org/) -->

<svg
   xmlns:dc="http://purl.org/dc/elements/1.1/"
   xmlns:cc="http://creativecommons.org/ns#"
   xmlns:rdf="http://www.w3.org/1999/02/22-rdf-syntax-ns#"
   xmlns:svg="http://www.w3.org/2000/svg"
   xmlns="http://www.w3.org/2000/svg"
   xmlns:sodipodi="http://sodipodi.sourceforge.net/DTD/sodipodi-0.dtd"
   xmlns:inkscape="http://www.inkscape.org/namespaces/inkscape"
   width="145.84978mm"
   height="86.206993mm"
   viewBox="0 0 516.79055 305.45785"
   id="svg2"
   version="1.1"
   inkscape:version="0.91 r13725"
   sodipodi:docname="carrisata.svg">
  <defs
     id="defs4" />
  <sodipodi:namedview
     id="base"
     pagecolor="#00f0ff"
     bordercolor="#666666"
     borderopacity="1"
     inkscape:pageopacity="0"
     inkscape:pageshadow="2"
     inkscape:zoom="0.98994949"
     inkscape:cx="223.74503"
     inkscape:cy="147.26791"
     inkscape:document-units="px"
     inkscape:current-layer="layer1"
     showgrid="false"
     showborder="true"
     inkscape:showpageshadow="true"
     borderlayer="false"
     fit-margin-left="-0.1"
     inkscape:window-width="1920"
     inkscape:window-height="1056"
     inkscape:window-x="0"
     inkscape:window-y="24"
     inkscape:window-maximized="1"
     fit-margin-top="0"
     fit-margin-right="0"
     fit-margin-bottom="0" />
  <metadata
     id="metadata7">
    <rdf:RDF>
      <cc:Work
         rdf:about="">
        <dc:format>image/svg+xml</dc:format>
        <dc:type
           rdf:resource="http://purl.org/dc/dcmitype/StillImage" />
        <dc:title></dc:title>
      </cc:Work>
    </rdf:RDF>
  </metadata>
  <g
     inkscape:label="Capa 1"
     inkscape:groupmode="layer"
     id="layer1"
     transform="translate(-88.965694,-316.89127)">
    <g
       style="fill:#ffffff;fill-opacity:0.96135266"
       id="g4268"
       transform="matrix(-1,0,0,1,595.59523,412.3203)" />
    <g
       style="fill:#ffffff;fill-opacity:0.96135266"
       id="g4270"
       transform="matrix(-1,0,0,1,595.59523,412.3203)" />
    <g
       style="fill:#ffffff;fill-opacity:0.96135266"
       id="g4272"
       transform="matrix(-1,0,0,1,595.59523,412.3203)" />
    <g
       style="fill:#ffffff;fill-opacity:0.96135266"
       id="g4274"
       transform="matrix(-1,0,0,1,595.59523,412.3203)" />
    <g
       style="fill:#ffffff;fill-opacity:0.96135266"
       id="g4276"
       transform="matrix(-1,0,0,1,595.59523,412.3203)" />
    <g
       style="fill:#ffffff;fill-opacity:0.96135266"
       id="g4278"
       transform="matrix(-1,0,0,1,595.59523,412.3203)" />
    <g
       style="fill:#ffffff;fill-opacity:0.96135266"
       id="g4280"
       transform="matrix(-1,0,0,1,595.59523,412.3203)" />
    <g
       style="fill:#ffffff;fill-opacity:0.96135266"
       id="g4282"
       transform="matrix(-1,0,0,1,595.59523,412.3203)" />
    <g
       style="fill:#ffffff;fill-opacity:0.96135266"
       id="g4284"
       transform="matrix(-1,0,0,1,595.59523,412.3203)" />
    <g
       style="fill:#ffffff;fill-opacity:0.96135266"
       id="g4286"
       transform="matrix(-1,0,0,1,595.59523,412.3203)" />
    <g
       style="fill:#ffffff;fill-opacity:0.96135266"
       id="g4288"
       transform="matrix(-1,0,0,1,595.59523,412.3203)" />
    <g
       style="fill:#ffffff;fill-opacity:0.96135266"
       id="g4290"
       transform="matrix(-1,0,0,1,595.59523,412.3203)" />
    <g
       style="fill:#ffffff;fill-opacity:0.96135266"
       id="g4292"
       transform="matrix(-1,0,0,1,595.59523,412.3203)" />
    <g
       style="fill:#ffffff;fill-opacity:0.96135266"
       id="g4294"
       transform="matrix(-1,0,0,1,595.59523,412.3203)" />
    <g
       style="fill:#ffffff;fill-opacity:0.96135266"
       id="g4296"
       transform="matrix(-1,0,0,1,595.59523,412.3203)" />
    <g
       id="g4399"
       transform="translate(6.1203877,-164.4395)">
      <path
         style="fill:#ffffff;fill-opacity:0.96135266"
         inkscape:connector-curvature="0"
         d="m 161.93584,549.66108 c 10.7,0 9.7,32.4 32.5,40.7 11,4 21.6,5.6 30.9,5.6 16.6,0 29.3,-4.9 34,-9.5 7.399,-7.2 -59.801,-29.9 -45.4,-49.4 l 22,-29.5 c 1.5,-2 3.8,-3.1 6.1,-3.1 1.5,0 3,0.5 4.4,1.5 l 73.8,54.2 c 0,0 28.2,0 33.1,16.5 0,0 0.801,-0.1 2.201,-0.1 6.1,0 22.699,1.3 27.199,15.2 0,0 69.9,13.8 111.6,36.2 41.6,22.301 105.3,21 105.3,56.5 0,35.5 -56.4,59.2 -101.1,59.2 -44.7,0 -269,-6.8 -300.4,-8.601 -6.7,-0.399 -13,-0.5 -18.9,-0.5 -8.399,0 -15.899,0.201 -22.5,0.201 -23.8,0 -36.1,-3 -36.5,-30.301 -0.6,-40.199 -5.5,-102.4 25.101,-141.3 7.899,-9.699 12.999,-13.499 16.599,-13.499 z m 145.5,156.8 37,0 c 0.7,0 1.3,-0.3 1.8,-0.699 l 80.3,-73.5 c 1.6,-1.5 0.9,-4.1 -1.1,-4.6 l -28,-7.5 c -0.9,-0.2 -1.9,0 -2.5,0.6 l -89.399,81 c -1.801,1.599 -0.601,4.699 1.899,4.699 z m -74.7,-0.1 39,-0.5 c 0.7,0 1.3,-0.301 1.8,-0.7 l 99.601,-90.3 c 1.6,-1.5 1,-4.1 -1.1,-4.7 l -27.9,-7.5 c -0.9,-0.2 -1.801,0 -2.5,0.6 l -110.8,98.299 c -1.802,1.701 -0.601,4.801 1.899,4.801 z"
         id="path4266" />
      <ellipse
         ry="20.299614"
         rx="19.362709"
         cy="764.34174"
         cx="524.68866"
         id="path4346"
         style="fill:#ffffff;fill-opacity:0.96135266;stroke:none;stroke-width:0.61832595;stroke-opacity:1" />
      <ellipse
         ry="20.299614"
         rx="19.362709"
         cy="766.48901"
         cx="465.68033"
         id="path4346-3"
         style="fill:#ffffff;fill-opacity:0.96135266;stroke:none;stroke-width:0.61832595;stroke-opacity:1" />
      <ellipse
         ry="20.299614"
         rx="19.362709"
         cy="761.85669"
         cx="247.7399"
         id="path4346-6"
         style="fill:#ffffff;fill-opacity:0.96135266;stroke:none;stroke-width:0.61832595;stroke-opacity:1" />
      <ellipse
         ry="20.299614"
         rx="19.362709"
         cy="759.92303"
         cx="169.70563"
         id="path4346-7"
         style="fill:#ffffff;fill-opacity:0.96135266;stroke:none;stroke-width:0.61832595;stroke-opacity:1" />
      <path
         sodipodi:nodetypes="ccccccc"
         inkscape:connector-curvature="0"
         id="path4397"
         d="m 82.490976,503.80666 48.992394,0.25254 18.68782,75.00383 20.8344,-4.79823 -21.84455,-92.17642 -66.417524,-0.75761 z"
         style="fill:#ffffff;fill-opacity:0.96135266;fill-rule:evenodd;stroke:none;stroke-width:1px;stroke-linecap:butt;stroke-linejoin:miter;stroke-opacity:1" />
    </g>
  </g>
</svg>
